Data Science for Biological, Medical and Health Research - 1 Building the nh432 example
…
}

Applying this script to our nh_fixing data, our result is:

items.phq9 <- c("DPQ010", "DPQ020", "DPQ030", "DPQ040", "DPQ050",
                "DPQ060", "DPQ070", "DPQ080", "DPQ090")
nh_fixing <- nh_fixing %>% scoring_phq9(., all_of(items.phq9))

nh_fixing |> count(nvalid_phq9, PHQ9, PHQ9_CAT)

# A tibble: 36 × 4
   nvalid_phq9  PHQ9 PHQ9_CAT     n
         <int> <int> <fct>    <int>
 1           0    NA <NA>       212
 2           5    NA <NA>         1
 3           7     1 minimal      1
 4           7     2 minimal      1
 5           7     7 mild         1
 6           8     1 minimal      2
 7           8     2 minimal      1
 8           8     3 minimal      1
 9           8     8 mild         1
10           9     0 minimal   1233
# … with 26 more rows
…
1.16 nh432 analytic tibble

nh432

# A tibble: 3,931 × 55
   SEQN     AGE RACEETH    EDUC  SEX   INSUR…¹ NOINSUR SROH  WEIGHT HEIGHT WAIST
   <chr>  <dbl> <fct>      <fct> <fct>   <dbl>   <dbl> <fct>  <dbl>  <dbl> <dbl>
 1 109271    49 Non-H Whi… 9th … Male        1       0 Fair    98.8   182. 120. 
 2 109273    36 Non-H Whi… Some… Male        1       1 Good    74.3   184.  86.8
 3 109284    44 Hispanic   9th … Fema…       0       1 Fair    91.1   153. 103. 
 4 109291    42 Non-H Asi… Coll… Fema…       1       0 Fair    81.4   161.  NA  
 5 109292    58 Hispanic   High… Male        1       0 Very…   86     168. 108. 
 6 109293    44 Non-H Whi… High… Male        1       0 Good    99.4   182. 107  
 7 109295    54 Hispanic   Less… Fema…       1       0 Good    61.7   157.  90.5
 8 109297    30 Non-H Asi… Some… Fema…       1       0 Very…   55.4   155.  73.2
 9 109300    54 Non-H Asi… Coll… Fema…       1       0 Exce…   62     145.  84.8
10 109305    55 Non-H Asi… Coll… Male        1       0 Good    64     175.  82.5
# … with 3,921 more rows, 44 more variables: SBP <dbl>, DBP <dbl>,
#   PULSE1 <dbl>, PULSE2 <dbl>, WBC <dbl>, PLATELET <dbl>, HSCRP <dbl>,
#   DR_LOSE <dbl>, DR_EXER <dbl>, NOW_LOSE <dbl>, NOW_EXER <dbl>, ESTHT <dbl>,
#   ESTWT <dbl>, WTGOAL <fct>, DIETQUAL <fct>, FOODSEC <fct>, WORK_V <dbl>,
#   VIGWK_D <dbl>, REC_V <dbl>, VIGREC_D <dbl>, SEDATE <dbl>, PHQ9 <int>,
#   PHQ9_CAT <fct>, DEPRDIFF <fct>, MENTALH <dbl>, SLPWKDAY <dbl>,
#   SLPWKEND <dbl>, SLPTROUB <dbl>, SNORE <fct>, HOSPITAL <dbl>, …
…
