Data Science for Biological, Medical and Health Research - 5 431 Review: Fitting Linear Models
…
PHQ-9 depression screener score (PHQ9), and

whether or not the participant has mentioned trouble sleeping to a physician (SLPTROUB)

We’ll compare a model using all four of these predictors to a model using just the two directly related to sleep (SLPWKDAY and SLPTROUB), and we’ll restrict our analysis to those participants whose self-reported overall health (SROH) was “Good”.

dat1 <- nh432 |>
  select(SEQN, SLPWKEND, SLPWKDAY, SBP, PHQ9, SLPTROUB, SROH) |>
  filter(SROH == "Good") |>
  drop_na()

dat1

# A tibble: 1,293 × 7
   SEQN   SLPWKEND SLPWKDAY   SBP  PHQ9 SLPTROUB SROH 
   <chr>     <dbl>    <dbl> <dbl> <int>    <dbl> <fct>
 1 109273      8        6.5   110    15        1 Good 
 2 109293      6.5      7.5   130     3        0 Good 
 3 109295      7        7     161     0        1 Good 
 4 109305      6.5      6     125     0        0 Good 
 5 109307     11        7.5   114     0        0 Good 
 6 109315      5        5     123     1        0 Good 
 7 109336      8        4     148     1        1 Good 
 8 109342      8        6.5   107    16        1 Good 
 9 109365      9.5      9.5   133     7        0 Good 
10 109378      9        9     133     0        0 Good 
# … with 1,283 more rows
…
