Data Science for Biological, Medical and Health Research - 13 Adding Non-linear Terms to a Linear Regression
…
theme_set(theme_bw())

13.1.1 Data Load

pollution <- read_csv("data/pollution.csv", show_col_types = FALSE) 

13.2 The pollution data

Consider the pollution data set, which contain 15 independent variables and a measure of mortality, describing 60 US metropolitan areas in 1959-1961. The data come from @McDonald1973, and are available at http://www4.stat.ncsu.edu/~boos/var.select/pollution.html and our web site.

pollution

# A tibble: 60 × 16
      x1    x2    x3    x4    x5    x6    x7    x8    x9   x10   x11   x12   x13
   <dbl> <dbl> <dbl> <dbl> <dbl> <dbl> <dbl> <dbl> <dbl> <dbl> <dbl> <dbl> <dbl>
 1    13    49    68   7    3.36  12.2  90.7  2702   3    51.9   9.7   105    32
 2    28    32    81   7    3.27  12.1  81    3665   7.5  51.6  13.2     4     2
 3    10    55    70   7.3  3.11  12.1  88.9  3033   5.9  51    14     144    66
 4    43    32    74  10.1  3.38   9.5  79.2  3214   2.9  43.7  12      11     7
 5    25    12    73   9.2  3.28  12.1  83.1  2095   2    51.9   9.8    20    11
 6    35    46    85   7.1  3.22  11.8  79.9  1441  14.8  51.2  16.1     1     1
 7    60    67    82  10    2.98  11.5  88.6  4657  13.5  47.3  22.4     3     1
 8    11    53    68   9.2  2.99  12.1  90.6  4700   7.8  48.9  12.3   648   319
 9    31    24    72   9    3.37  10.9  82.8  3226   5.1  45.2  12.3     5     3
10    15    30    73   8.2  3.15  12.2  84.2  4824   4.7  53.1  12.7    17     8
# … with 50 more rows, and 3 more variables: x14 <dbl>, x15 <dbl>, y <dbl>
…
