Data Science for Biological, Medical and Health Research - 31 Cox Regression Models, Part 2
…
theme_set(theme_bw())

31.1.1 Data Load

leukem <- read_csv("data/leukem.csv", show_col_types = FALSE) 

31.2 A Second Example: The leukem data

leukem

# A tibble: 51 × 8
      id   age pblasts  pinf  plab maxtemp months alive
   <dbl> <dbl>   <dbl> <dbl> <dbl>   <dbl>  <dbl> <dbl>
 1     1    20      78    39     7    99       18     0
 2     2    25      64    61    16   103       31     1
 3     3    26      61    55    12    98.2     31     0
 4     4    26      64    64    16   100       31     0
 5     5    27      95    95     6    98       36     0
 6     6    27      80    64     8   101        1     0
 7     7    28      88    88    20    98.6      9     0
 8     8    28      70    70    14   101       39     1
 9     9    31      72    72     5    98.8     20     1
10    10    33      58    58     7    98.6      4     0
# ℹ 41 more rows
…
