Data Science for Biological, Medical and Health Research - 28 Multinomial Logistic Regression
…
authorship <- read_csv("data/authorship.csv", show_col_types = FALSE) 

28.2 The Authorship Example

This example is based on the work of Jeffrey S. Simonoff (2003) Analyzing Categorical Data in Chapter 10. Related data and R code are available at this link. Meanwhile, the data set and analysis are based on the work of Peng RD and Hengartner NW (2002) Quantitative analysis of literary styles, The American Statistician, 56, 175-185.

The authorship.csv data file contains 841 rows. Each row describes a block of text that contains 1700 total words from one of several books by four authors: Jane Austen (samples from 7 books), Jack London (6 books), John Milton (2 books), or William Shakespeare (12 books). The data include counts within the blocks of text of 69 function words, such as “a”, “by”, “no”, “that” and “with”. The goal of our analysis, mirroring that of Simonoff, will be to use the incidence of these function words to build a model that distinguishes the authors.

authorship$Author <- factor(authorship$Author, 
    levels = c("Shakespeare", "Austen", "London", "Milton"))

authorship

# A tibble: 841 × 71
   BookID Author     a   all  also    an   and   any   are    as    at    be
    <dbl> <fct>  <dbl> <dbl> <dbl> <dbl> <dbl> <dbl> <dbl> <dbl> <dbl> <dbl>
 1      1 Austen    46    12     0     3    66     9     4    16    13    13
 2      1 Austen    35    10     0     7    44     4     3    18    16     9
 3      1 Austen    46     2     0     3    40     1    13    11     9    23
 4      1 Austen    40     7     0     4    64     3     3    20    13    20
 5      1 Austen    29     5     0     6    52     5    14    17     6    16
 6      1 Austen    27     8     0     3    42     2    15    11    14    12
 7      1 Austen    34     8     0    15    44     2     6    16    14    11
 8      1 Austen    38     6     1     2    67     3     6    17     4    21
 9      1 Austen    34    12     0     5    50     2     8     7    13     7
10      1 Austen    54     8     0     6    44     4     8    13    17    14
# ℹ 831 more rows
# ℹ 59 more variables: been <dbl>, but <dbl>, by <dbl>, can <dbl>, do <dbl>,
#   down <dbl>, even <dbl>, every <dbl>, `for` <dbl>, from <dbl>, had <dbl>,
#   has <dbl>, have <dbl>, her <dbl>, his <dbl>, `if` <dbl>, `in` <dbl>,
#   into <dbl>, is <dbl>, it <dbl>, its <dbl>, may <dbl>, more <dbl>,
#   must <dbl>, my <dbl>, no <dbl>, not <dbl>, now <dbl>, of <dbl>, on <dbl>,
#   one <dbl>, only <dbl>, or <dbl>, our <dbl>, should <dbl>, so <dbl>, …
…
Again, following Simonoff, we will focus on 11 words from the set of 69 potential predictors in the data, specifically…

“be”, “been”, “had”, “it”, “may”, “not”, “on”, “the”, “upon”, “was” and “which”

auth2 <- authorship |>
    select(Author, BookID, be, been, had, it, may, not, 
           on, the, upon, was, which)

auth2.long <- auth2 |>
    gather("word", "n", 3:13)

auth2.long

# A tibble: 9,251 × 4
   Author BookID word      n
   <fct>   <dbl> <chr> <dbl>
 1 Austen      1 be       13
 2 Austen      1 be        9
 3 Austen      1 be       23
 4 Austen      1 be       20
 5 Austen      1 be       16
 6 Austen      1 be       12
 7 Austen      1 be       11
 8 Austen      1 be       21
 9 Austen      1 be        7
10 Austen      1 be       14
# ℹ 9,241 more rows
…
been_dat <- data_frame(been_count = beengrid[,2], 
                       austen = austenprob[,1], 
                       london = londonprob[,1], 
                       milton = miltonprob[,1], 
                       shakespeare = shakesprob[,1])

Warning: `data_frame()` was deprecated in tibble 1.1.0.
ℹ Please use `tibble()` instead.

been_dat

# A tibble: 271 × 5
   been_count austen london milton shakespeare
        <dbl>  <dbl>  <dbl>  <dbl>       <dbl>
 1        0   0.0258  0.136  0.285       0.553
 2        0.1 0.0288  0.147  0.272       0.553
 3        0.2 0.0321  0.158  0.258       0.551
 4        0.3 0.0357  0.171  0.245       0.548
 5        0.4 0.0396  0.184  0.232       0.545
 6        0.5 0.0438  0.197  0.219       0.540
 7        0.6 0.0484  0.211  0.207       0.534
 8        0.7 0.0534  0.225  0.195       0.527
 9        0.8 0.0587  0.240  0.183       0.518
10        0.9 0.0644  0.256  0.171       0.509
# ℹ 261 more rows

Now, we gather the data by author name and probability

been_dat_long <- been_dat |>
    gather("name", "prob", 2:5)
been_dat_long

# A tibble: 1,084 × 3
   been_count name     prob
        <dbl> <chr>   <dbl>
 1        0   austen 0.0258
 2        0.1 austen 0.0288
 3        0.2 austen 0.0321
 4        0.3 austen 0.0357
 5        0.4 austen 0.0396
 6        0.5 austen 0.0438
 7        0.6 austen 0.0484
 8        0.7 austen 0.0534
 9        0.8 austen 0.0587
10        0.9 austen 0.0644
# ℹ 1,074 more rows
…
