Data Science for Biological, Medical and Health Research - 18 Building Table 1
…
extra.ica
Extracranial ICA occlusion (1 = Yes, 0 = No)

time.rand
Time from stroke onset to study randomization, in minutes

time.punc
Time from stroke onset to groin puncture, in minutes (only if Intervention)

Here’s a quick look at the simulated data in fakestroke.

fakestroke

# A tibble: 500 × 18
   studyid trt        age sex   nihss location hx.isch  afib    dm mrankin   sbp
   <chr>   <chr>    <dbl> <chr> <dbl> <chr>    <chr>   <dbl> <dbl> <chr>   <dbl>
 1 z001    Control     53 Male     21 Right    No          0     0 2         127
 2 z002    Interve…    51 Male     23 Left     No          1     0 0         137
 3 z003    Control     68 Fema…    11 Right    No          0     0 0         138
 4 z004    Control     28 Male     22 Left     No          0     0 0         122
 5 z005    Control     91 Male     24 Right    No          0     0 0         162
 6 z006    Control     34 Fema…    18 Left     No          0     0 2         166
 7 z007    Interve…    75 Male     25 Right    No          0     0 0         140
 8 z008    Control     89 Fema…    18 Right    No          0     0 0         157
 9 z009    Control     75 Male     25 Left     No          1     0 2         129
10 z010    Interve…    26 Fema…    27 Right    No          0     0 0         143
# ℹ 490 more rows
# ℹ 7 more variables: iv.altep <chr>, time.iv <dbl>, aspects <dbl>,
#   ia.occlus <chr>, extra.ica <dbl>, time.rand <dbl>, time.punc <dbl>
…
wt.init
covariate: Initial weight (grams)

wt.loss
covariate: Weight loss (grams)

wt.tumor
covariate: Tumor weight (10-4 grams)

And here’s what the data look like in R.

bloodbrain

# A tibble: 34 × 11
    case  brain   liver tlratio solution sactime postin sex   wt.init wt.loss
   <dbl>  <dbl>   <dbl>   <dbl> <chr>      <dbl>  <dbl> <chr>   <dbl>   <dbl>
 1     1  41081 1456164  0.0282 BD           0.5     10 F         239     5.9
 2     2  44286 1602171  0.0276 BD           0.5     10 F         225     4  
 3     3 102926 1601936  0.0642 BD           0.5     10 F         224    -4.9
 4     4  25927 1776411  0.0146 BD           0.5     10 F         184     9.8
 5     5  42643 1351184  0.0316 BD           0.5     10 F         250     6  
 6     6  31342 1790863  0.0175 NS           0.5     10 F         196     7.7
 7     7  22815 1633386  0.0140 NS           0.5     10 F         200     0.5
 8     8  16629 1618757  0.0103 NS           0.5     10 F         273     4  
 9     9  22315 1567602  0.0142 NS           0.5     10 F         216     2.8
10    10  77961 1060057  0.0735 BD           3       10 F         267     2.6
# ℹ 24 more rows
# ℹ 1 more variable: wt.tumor <dbl>
…
